R 연습문제
…
## The following objects are masked from 'package:stats':
## 
##     filter, lag

## The following objects are masked from 'package:base':
## 
##     intersect, setdiff, setequal, union

midwest_control <- midwest %>% 
  filter(poptotal<=500000 & popasian <= 10000)
midwest_control

## # A tibble: 422 x 28
##      PID county state  area poptotal popdensity popwhite popblack
##    <int> <chr>  <chr> <dbl>    <int>      <dbl>    <int>    <int>
##  1   561 ADAMS  IL    0.052    66090      1271.    63917     1702
##  2   562 ALEXA~ IL    0.014    10626       759      7054     3496
##  3   563 BOND   IL    0.022    14991       681.    14477      429
##  4   564 BOONE  IL    0.017    30806      1812.    29344      127
##  5   565 BROWN  IL    0.018     5836       324.     5264      547
##  6   566 BUREAU IL    0.05     35688       714.    35157       50
##  7   567 CALHO~ IL    0.017     5322       313.     5298        1
##  8   568 CARRO~ IL    0.027    16805       622.    16519      111
##  9   569 CASS   IL    0.024    13437       560.    13384       16
## 10   570 CHAMP~ IL    0.058   173025      2983.   146506    16559
## # ... with 412 more rows, and 20 more variables: popamerindian <int>,
## #   popasian <int>, popother <int>, percwhite <dbl>, percblack <dbl>,
## #   percamerindan <dbl>, percasian <dbl>, percother <dbl>,
## #   popadults <int>, perchsd <dbl>, percollege <dbl>, percprof <dbl>,
## #   poppovertyknown <int>, percpovertyknown <dbl>, percbelowpoverty <dbl>,
## #   percchildbelowpovert <dbl>, percadultpoverty <dbl>,
## #   percelderlypoverty <dbl>, inmetro <int>, category <chr>
…
